{
	"oauth": {
		"OAUTH_USERNAME": "gamestatelive",
		"OAUTH_PASS": "oauth:zhk4u4eahbz3klh0ldty453mf85abg"
	},
	"currency": {
		"payout": 5,
		"startingAmount": 5,
		"currencyName": "jcoins"
	},
	"db": {
		"url": "mongodb://localhost/",
		"dbName": "j-bot"
	}
}